<?xml version="1.0" encoding="utf-8"?>
<!-- Generator: Adobe Illustrator 23.1.1, SVG Export Plug-In . SVG Version: 6.00 Build 0)  -->
<svg id="Layer_1" style="enable-background:new 0 0 20 20;" version="1.1" viewBox="0 0 20 20" x="0px"
     xml:space="preserve"
     xmlns="http://www.w3.org/2000/svg" xmlns:xlink="http://www.w3.org/1999/xlink" y="0px">
<style type="text/css">
	.st0 {
    opacity: 0.3;
  }

  .st1 {
    fill: #FFFFFF;
  }

  .st2 {
    fill: #0A0A0B;
  }

  .st3 {
    fill: #D7E5DA;
  }

  .st4 {
    fill: #46834A;
  }
</style>
  <g class="st0">
	<circle class="st1" cx="10" cy="10" r="9.5"/>
    <path class="st2" d="M10,1c5,0,9,4,9,9s-4,9-9,9s-9-4-9-9S5,1,10,1 M10,0C4.5,0,0,4.5,0,10s4.5,10,10,10s10-4.5,10-10S15.5,0,10,0
		L10,0z"/>
</g>
</svg>
